<?xml version="1.0"?>
<svg width="30" height="30" xmlns="http://www.w3.org/2000/svg" xmlns:svg="http://www.w3.org/2000/svg">
 <defs>
  <style>.a{fill:#fff;}.b{fill:none;stroke:#8d639d;stroke-linecap:round;stroke-linejoin:round;stroke-width:3px;}</style>
 </defs>
 <g class="layer">
  <title>Layer 1</title>
  <g id="svg_1" transform="rotate(90 15 15)">
   <circle class="a" cx="-189" cy="-548" id="svg_2" r="15" transform="translate(204 563)"/>
   <g id="svg_3" transform="translate(-53.418 409.305)">
    <path class="b" d="m3445.012,2582.831l-7.286,7.367l-7.286,-7.367" id="svg_4" transform="translate(-3369.06 -2980.08)"/>
   </g>
  </g>
 </g>
</svg>